<?xml version="1.0" encoding="UTF-8" standalone="no"?>
<svg
   xmlns:dc="http://purl.org/dc/elements/1.1/"
   xmlns:cc="http://creativecommons.org/ns#"
   xmlns:rdf="http://www.w3.org/1999/02/22-rdf-syntax-ns#"
   xmlns:svg="http://www.w3.org/2000/svg"
   xmlns="http://www.w3.org/2000/svg"
   xmlns:sodipodi="http://sodipodi.sourceforge.net/DTD/sodipodi-0.dtd"
   xmlns:inkscape="http://www.inkscape.org/namespaces/inkscape"
   width="2303.1497"
   height="1417.3228"
   id="svg5423"
   version="1.1"
   inkscape:version="0.48.4 r9939"
   sodipodi:docname="6_magnet_digits.svg">
  <metadata
     id="metadata5735">
    <rdf:RDF>
      <cc:Work
         rdf:about="">
        <dc:format>image/svg+xml</dc:format>
        <dc:type
           rdf:resource="http://purl.org/dc/dcmitype/StillImage" />
        <dc:title />
      </cc:Work>
    </rdf:RDF>
  </metadata>
  <sodipodi:namedview
     pagecolor="#ffffff"
     bordercolor="#666666"
     borderopacity="1"
     objecttolerance="10000"
     gridtolerance="10000"
     guidetolerance="10000"
     inkscape:pageopacity="0"
     inkscape:pageshadow="2"
     inkscape:window-width="1920"
     inkscape:window-height="1030"
     id="namedview5733"
     showgrid="true"
     inkscape:zoom="0.70710678"
     inkscape:cx="896.39201"
     inkscape:cy="250.01282"
     inkscape:window-x="0"
     inkscape:window-y="0"
     inkscape:window-maximized="1"
     inkscape:current-layer="g5441"
     units="mm"
     inkscape:document-units="mm"
     showguides="true"
     inkscape:guide-bbox="true">
    <inkscape:grid
       type="xygrid"
       id="grid3062"
       empspacing="10"
       visible="true"
       enabled="true"
       snapvisiblegridlinesonly="false"
       units="mm"
       spacingx="1mm"
       spacingy="1mm" />
  </sodipodi:namedview>
  <desc
     id="desc5425">H:\Makerspace\Jenna\Clock\clock_final1.dxf - scale = 1.000000, origin = (0.000000, 0.000000), auto = False</desc>
  <defs
     id="defs5427">
    <marker
       refY="0"
       refX="0"
       style="overflow:visible"
       id="DistanceX"
       orient="auto">
      <path
         style="stroke:#000000;stroke-width:0.5"
         d="M 3,-3 -3,3 M 0,-5 0,5"
         id="path5430"
         inkscape:connector-curvature="0" />
    </marker>
    <pattern
       height="8"
       width="8"
       patternUnits="userSpaceOnUse"
       y="0"
       x="0"
       id="Hatch">
      <path
         linecap="square"
         stroke="#000000"
         stroke-width="0.25"
         d="M8 4 l-4,4"
         id="path5433" />
      <path
         linecap="square"
         stroke="#000000"
         stroke-width="0.25"
         d="M6 2 l-4,4"
         id="path5435" />
      <path
         linecap="square"
         stroke="#000000"
         stroke-width="0.25"
         d="M4 0 l-4,4"
         id="path5437" />
    </pattern>
    <symbol
       id="*MODEL_SPACE" />
    <symbol
       id="*PAPER_SPACE" />
  </defs>
  <g
     inkscape:label="0"
     inkscape:groupmode="layer"
     id="g5441"
     transform="translate(0,364.96062)">
    <path
       sodipodi:type="arc"
       style="fill:#000000;fill-opacity:0;fill-rule:evenodd;stroke:#000000;stroke-width:1px;stroke-linecap:butt;stroke-linejoin:miter;stroke-opacity:1"
       id="path3200"
       sodipodi:cx="1318.1102"
       sodipodi:cy="875.19678"
       sodipodi:rx="21.259836"
       sodipodi:ry="21.259836"
       d="m 1339.3701,875.19678 c 0,11.74148 -9.5184,21.25983 -21.2599,21.25983 -11.7415,0 -21.2598,-9.51835 -21.2598,-21.25983 0,-11.74149 9.5183,-21.25984 21.2598,-21.25984 11.7415,0 21.2599,9.51835 21.2599,21.25984 z"
       transform="translate(-520.88034,-99.206661)" />
    <path
       transform="translate(-520.85446,-322.4428)"
       d="m 1339.3701,875.19678 c 0,11.74148 -9.5184,21.25983 -21.2599,21.25983 -11.7415,0 -21.2598,-9.51835 -21.2598,-21.25983 0,-11.74149 9.5183,-21.25984 21.2598,-21.25984 11.7415,0 21.2599,9.51835 21.2599,21.25984 z"
       sodipodi:ry="21.259836"
       sodipodi:rx="21.259836"
       sodipodi:cy="875.19678"
       sodipodi:cx="1318.1102"
       id="path3202"
       style="fill:#000000;fill-opacity:0;fill-rule:evenodd;stroke:#000000;stroke-width:1px;stroke-linecap:butt;stroke-linejoin:miter;stroke-opacity:1"
       sodipodi:type="arc" />
    <path
       style="fill:none;stroke:#000000;stroke-width:1px;stroke-linecap:butt;stroke-linejoin:miter;stroke-opacity:1"
       d="m 1523.5775,411.05761 85.0394,0 10.6299,10.62992 -10.6299,10.62992 -85.0394,0 -10.6299,-10.62992 z"
       id="path3187"
       inkscape:connector-curvature="0" />
    <path
       inkscape:connector-curvature="0"
       id="path3189"
       d="m 1520.0617,435.93234 0,85.0394 -10.6299,10.6299 -10.6299,-10.6299 0,-85.0394 10.6299,-10.6299 z"
       style="fill:none;stroke:#000000;stroke-width:1px;stroke-linecap:butt;stroke-linejoin:miter;stroke-opacity:1" />
    <path
       style="fill:none;stroke:#000000;stroke-width:1px;stroke-linecap:butt;stroke-linejoin:miter;stroke-opacity:1"
       d="m 1633.4404,435.85261 0,85.0394 -10.6299,10.6299 -10.6299,-10.6299 0,-85.0394 10.6299,-10.6299 z"
       id="path3195"
       inkscape:connector-curvature="0" />
    <path
       inkscape:connector-curvature="0"
       id="path3203"
       d="m 1523.4891,524.45986 85.0394,0 10.6299,10.62992 -10.6299,10.62992 -85.0394,0 -10.6299,-10.62992 z"
       style="fill:none;stroke:#000000;stroke-width:1px;stroke-linecap:butt;stroke-linejoin:miter;stroke-opacity:1" />
    <path
       style="fill:none;stroke:#000000;stroke-width:1px;stroke-linecap:butt;stroke-linejoin:miter;stroke-opacity:1"
       d="m 1519.9733,549.33459 0,85.0394 -10.6299,10.6299 -10.6299,-10.6299 0,-85.0394 10.6299,-10.6299 z"
       id="path3205"
       inkscape:connector-curvature="0" />
    <path
       inkscape:connector-curvature="0"
       id="path3207"
       d="m 1633.352,549.25486 0,85.0394 -10.6299,10.6299 -10.6299,-10.6299 0,-85.0394 10.6299,-10.6299 z"
       style="fill:none;stroke:#000000;stroke-width:1px;stroke-linecap:butt;stroke-linejoin:miter;stroke-opacity:1" />
    <path
       inkscape:connector-curvature="0"
       id="path3209"
       d="m 1523.5112,637.8842 85.0394,0 10.6299,10.62992 -10.6299,10.62992 -85.0394,0 -10.6299,-10.62992 z"
       style="fill:none;stroke:#000000;stroke-width:1px;stroke-linecap:butt;stroke-linejoin:miter;stroke-opacity:1" />
    <path
       style="fill:none;stroke:#000000;stroke-width:1px;stroke-linecap:butt;stroke-linejoin:miter;stroke-opacity:1"
       d="m 485.33046,432.27544 21.2599,-21.25985 177.1653,1e-5 21.2599,21.25984 -21.2599,21.25984 -177.1653,0 z"
       id="path3342"
       inkscape:connector-curvature="0" />
    <path
       inkscape:connector-curvature="0"
       id="path3346"
       d="m 478.36056,659.08673 -21.2599,-21.25989 0,-177.16531 21.2599,-21.2599 21.2598,21.2599 0,177.16531 z"
       style="fill:none;stroke:#000000;stroke-width:1px;stroke-linecap:butt;stroke-linejoin:miter;stroke-opacity:1" />
    <path
       inkscape:connector-curvature="0"
       id="path3348"
       d="m 485.35256,666.17309 21.2599,-21.25985 177.1653,10e-6 21.2599,21.25984 -21.2599,21.25984 -177.1653,0 z"
       style="fill:none;stroke:#000000;stroke-width:1px;stroke-linecap:butt;stroke-linejoin:miter;stroke-opacity:1" />
    <path
       style="fill:none;stroke:#000000;stroke-width:1px;stroke-linecap:butt;stroke-linejoin:miter;stroke-opacity:1"
       d="m 485.29696,900.01539 21.2599,-21.25985 177.1653,10e-6 21.2599,21.25984 -21.2599,21.25984 -177.1653,0 z"
       id="path3350"
       inkscape:connector-curvature="0" />
    <path
       style="fill:none;stroke:#000000;stroke-width:1px;stroke-linecap:butt;stroke-linejoin:miter;stroke-opacity:1"
       d="m 712.20226,659.04385 -21.2599,-21.25989 0,-177.16531 21.2599,-21.2599 21.2598,21.2599 0,177.16531 z"
       id="path3356"
       inkscape:connector-curvature="0" />
    <path
       inkscape:connector-curvature="0"
       id="path3358"
       d="m 712.14186,893.0086 -21.2599,-21.25989 0,-177.16531 21.2599,-21.2599 21.2598,21.2599 0,177.16531 z"
       style="fill:none;stroke:#000000;stroke-width:1px;stroke-linecap:butt;stroke-linejoin:miter;stroke-opacity:1" />
    <path
       style="fill:none;stroke:#000000;stroke-width:1px;stroke-linecap:butt;stroke-linejoin:miter;stroke-opacity:1"
       d="m 478.32931,892.97735 -21.25989,-21.25989 0,-177.16531 21.25989,-21.2599 21.25985,21.2599 0,177.16531 z"
       id="path3360"
       inkscape:connector-curvature="0" />
    <path
       inkscape:connector-curvature="0"
       id="path3366"
       d="m 166.4175,432.28325 21.2599,-21.25985 177.1653,1e-5 21.2599,21.25984 -21.2599,21.25984 -177.1653,0 z"
       style="fill:none;stroke:#000000;stroke-width:1px;stroke-linecap:butt;stroke-linejoin:miter;stroke-opacity:1" />
    <path
       style="fill:none;stroke:#000000;stroke-width:1px;stroke-linecap:butt;stroke-linejoin:miter;stroke-opacity:1"
       d="m 159.4476,659.09454 -21.2599,-21.25989 0,-177.16531 21.2599,-21.2599 21.2598,21.2599 0,177.16531 z"
       id="path3368"
       inkscape:connector-curvature="0" />
    <path
       style="fill:none;stroke:#000000;stroke-width:1px;stroke-linecap:butt;stroke-linejoin:miter;stroke-opacity:1"
       d="m 166.4396,666.1809 21.2599,-21.25985 177.1653,10e-6 21.2599,21.25984 -21.2599,21.25984 -177.1653,0 z"
       id="path3370"
       inkscape:connector-curvature="0" />
    <path
       inkscape:connector-curvature="0"
       id="path3372"
       d="m 166.384,900.0232 21.2599,-21.25985 177.1653,1e-5 21.2599,21.25984 -21.2599,21.25984 -177.1653,0 z"
       style="fill:none;stroke:#000000;stroke-width:1px;stroke-linecap:butt;stroke-linejoin:miter;stroke-opacity:1" />
    <path
       inkscape:connector-curvature="0"
       id="path3374"
       d="m 393.2893,659.05166 -21.2599,-21.25989 0,-177.16531 21.2599,-21.2599 21.2598,21.2599 0,177.16531 z"
       style="fill:none;stroke:#000000;stroke-width:1px;stroke-linecap:butt;stroke-linejoin:miter;stroke-opacity:1" />
    <path
       style="fill:none;stroke:#000000;stroke-width:1px;stroke-linecap:butt;stroke-linejoin:miter;stroke-opacity:1"
       d="m 393.2289,893.01641 -21.2599,-21.25989 0,-177.16531 21.2599,-21.2599 21.2598,21.2599 0,177.16531 z"
       id="path3376"
       inkscape:connector-curvature="0" />
    <path
       inkscape:connector-curvature="0"
       id="path3378"
       d="m 159.41635,892.98516 -21.25989,-21.25989 0,-177.16531 21.25989,-21.2599 21.25985,21.2599 0,177.16531 z"
       style="fill:none;stroke:#000000;stroke-width:1px;stroke-linecap:butt;stroke-linejoin:miter;stroke-opacity:1" />
    <path
       inkscape:connector-curvature="0"
       id="path3386"
       d="m 889.24816,432.29218 21.2599,-21.25985 177.16534,10e-6 21.2599,21.25984 -21.2599,21.25984 -177.16534,0 z"
       style="fill:none;stroke:#000000;stroke-width:1px;stroke-linecap:butt;stroke-linejoin:miter;stroke-opacity:1" />
    <path
       style="fill:none;stroke:#000000;stroke-width:1px;stroke-linecap:butt;stroke-linejoin:miter;stroke-opacity:1"
       d="m 882.27826,659.10347 -21.2599,-21.25989 0,-177.16531 21.2599,-21.2599 21.2598,21.2599 0,177.16531 z"
       id="path3388"
       inkscape:connector-curvature="0" />
    <path
       style="fill:none;stroke:#000000;stroke-width:1px;stroke-linecap:butt;stroke-linejoin:miter;stroke-opacity:1"
       d="m 889.27026,666.18983 21.2599,-21.25985 177.16534,10e-6 21.2599,21.25984 -21.2599,21.25984 -177.16534,0 z"
       id="path3390"
       inkscape:connector-curvature="0" />
    <path
       inkscape:connector-curvature="0"
       id="path3392"
       d="m 889.21466,900.03213 21.2599,-21.25985 177.16534,10e-6 21.2599,21.25984 -21.2599,21.25984 -177.16534,0 z"
       style="fill:none;stroke:#000000;stroke-width:1px;stroke-linecap:butt;stroke-linejoin:miter;stroke-opacity:1" />
    <path
       inkscape:connector-curvature="0"
       id="path3394"
       d="m 1116.12,659.06059 -21.2599,-21.25989 0,-177.16531 21.2599,-21.2599 21.2598,21.2599 0,177.16531 z"
       style="fill:none;stroke:#000000;stroke-width:1px;stroke-linecap:butt;stroke-linejoin:miter;stroke-opacity:1" />
    <path
       style="fill:none;stroke:#000000;stroke-width:1px;stroke-linecap:butt;stroke-linejoin:miter;stroke-opacity:1"
       d="m 1116.0596,893.02534 -21.2599,-21.25989 0,-177.16531 21.2599,-21.2599 21.2598,21.2599 0,177.16531 z"
       id="path3396"
       inkscape:connector-curvature="0" />
    <path
       inkscape:connector-curvature="0"
       id="path3398"
       d="m 882.24706,892.99409 -21.2599,-21.25989 0,-177.16531 21.2599,-21.2599 21.2598,21.2599 0,177.16531 z"
       style="fill:none;stroke:#000000;stroke-width:1px;stroke-linecap:butt;stroke-linejoin:miter;stroke-opacity:1" />
    <path
       style="fill:none;stroke:#000000;stroke-width:1px;stroke-linecap:butt;stroke-linejoin:miter;stroke-opacity:1"
       d="m 1208.1394,432.28708 21.2599,-21.25985 177.1653,1e-5 21.2599,21.25984 -21.2599,21.25984 -177.1653,0 z"
       id="path3400"
       inkscape:connector-curvature="0" />
    <path
       inkscape:connector-curvature="0"
       id="path3402"
       d="m 1201.1695,659.09837 -21.2599,-21.25989 0,-177.16531 21.2599,-21.2599 21.2598,21.2599 0,177.16531 z"
       style="fill:none;stroke:#000000;stroke-width:1px;stroke-linecap:butt;stroke-linejoin:miter;stroke-opacity:1" />
    <path
       inkscape:connector-curvature="0"
       id="path3404"
       d="m 1208.1615,666.18473 21.2599,-21.25985 177.1653,10e-6 21.2599,21.25984 -21.2599,21.25984 -177.1653,0 z"
       style="fill:none;stroke:#000000;stroke-width:1px;stroke-linecap:butt;stroke-linejoin:miter;stroke-opacity:1" />
    <path
       style="fill:none;stroke:#000000;stroke-width:1px;stroke-linecap:butt;stroke-linejoin:miter;stroke-opacity:1"
       d="m 1208.1059,900.02703 21.2599,-21.25985 177.1653,10e-6 21.2599,21.25984 -21.2599,21.25984 -177.1653,0 z"
       id="path3406"
       inkscape:connector-curvature="0" />
    <path
       style="fill:none;stroke:#000000;stroke-width:1px;stroke-linecap:butt;stroke-linejoin:miter;stroke-opacity:1"
       d="m 1435.0112,659.05549 -21.2599,-21.25989 0,-177.16531 21.2599,-21.2599 21.2598,21.2599 0,177.16531 z"
       id="path3408"
       inkscape:connector-curvature="0" />
    <path
       inkscape:connector-curvature="0"
       id="path3410"
       d="m 1434.9508,893.02024 -21.2599,-21.25989 0,-177.16531 21.2599,-21.2599 21.2598,21.2599 0,177.16531 z"
       style="fill:none;stroke:#000000;stroke-width:1px;stroke-linecap:butt;stroke-linejoin:miter;stroke-opacity:1" />
    <path
       style="fill:none;stroke:#000000;stroke-width:1px;stroke-linecap:butt;stroke-linejoin:miter;stroke-opacity:1"
       d="m 1201.1383,892.98899 -21.2599,-21.25989 0,-177.16531 21.2599,-21.2599 21.2598,21.2599 0,177.16531 z"
       id="path3412"
       inkscape:connector-curvature="0" />
    <path
       sodipodi:type="arc"
       style="fill:#000000;fill-opacity:0;stroke:#000000;stroke-opacity:1"
       id="path4232"
       sodipodi:cx="637.79529"
       sodipodi:cy="488.97629"
       sodipodi:rx="10.629921"
       sodipodi:ry="10.629921"
       d="m 648.42521,488.97629 c 0,5.87074 -4.75918,10.62992 -10.62992,10.62992 -5.87075,0 -10.62992,-4.75918 -10.62992,-10.62992 0,-5.87075 4.75917,-10.62992 10.62992,-10.62992 5.87074,0 10.62992,4.75917 10.62992,10.62992 z"
       transform="matrix(2.3027945,0,0,2.3027945,-1351.7965,-736.24229)" />
    <path
       sodipodi:type="arc"
       style="fill:#000000;fill-opacity:0;stroke:#000000;stroke-opacity:1"
       id="path4234"
       sodipodi:cx="637.79529"
       sodipodi:cy="1041.7322"
       sodipodi:rx="10.629921"
       sodipodi:ry="10.629921"
       d="m 648.42521,1041.7322 c 0,5.8707 -4.75918,10.6299 -10.62992,10.6299 -5.87075,0 -10.62992,-4.7592 -10.62992,-10.6299 0,-5.8708 4.75917,-10.6299 10.62992,-10.6299 5.87074,0 10.62992,4.7591 10.62992,10.6299 z"
       transform="matrix(2.3262317,0,0,2.3262317,-1366.7447,-1480.7849)" />
    <path
       sodipodi:type="arc"
       style="fill:#000000;fill-opacity:0;stroke:#000000;stroke-opacity:1"
       id="path4236"
       sodipodi:cx="2175.5906"
       sodipodi:cy="1041.7322"
       sodipodi:rx="10.629921"
       sodipodi:ry="10.629921"
       d="m 2186.2205,1041.7322 c 0,5.8707 -4.7592,10.6299 -10.6299,10.6299 -5.8708,0 -10.6299,-4.7592 -10.6299,-10.6299 0,-5.8708 4.7591,-10.6299 10.6299,-10.6299 5.8707,0 10.6299,4.7591 10.6299,10.6299 z"
       transform="matrix(2.3477185,0,0,2.3477185,-3452.9639,-1503.1684)" />
    <path
       sodipodi:type="arc"
       style="fill:#000000;fill-opacity:0;stroke:#000000;stroke-opacity:1"
       id="path4238"
       sodipodi:cx="2175.5906"
       sodipodi:cy="488.97629"
       sodipodi:rx="10.629921"
       sodipodi:ry="10.629921"
       d="m 2186.2205,488.97629 c 0,5.87074 -4.7592,10.62992 -10.6299,10.62992 -5.8708,0 -10.6299,-4.75918 -10.6299,-10.62992 0,-5.87075 4.7591,-10.62992 10.6299,-10.62992 5.8707,0 10.6299,4.75917 10.6299,10.62992 z"
       transform="matrix(2.3182902,0,0,2.3182902,-3388.9401,-743.81931)" />
    <path
       id="path4282"
       transform="translate(-520.88034,-99.206661)"
       style="fill:#000000;fill-opacity:0;stroke:#000000;stroke-opacity:1"
       d="m 2246.5065,1041.7244 c 0,39.1657 -31.7423,70.9194 -70.9081,70.9237 -0.015,0 -0.031,0 -0.046,0 m 0.042,-694.5556 c 39.148,0.002 70.8823,31.73917 70.8804,70.88721 0,0.003 0,0.006 0,0.009 M 637.80606,1112.7365 c -39.2146,0.01 -71.00913,-31.779 -71.01508,-70.9935 0,-0.01 0,-0.016 0,-0.024 m 0.10079,-552.74272 c 0,-39.15893 31.74459,-70.90351 70.90352,-70.90351 0.006,0 0.0121,0 0.0181,0 m 1537.77721,694.52563 -1537.79532,0 m 1608.67902,-623.62746 0,552.75586 M 637.79528,418.11016 l 1537.79532,0 m -1608.66146,623.62204 0,-552.7559" />
    <path
       style="fill:none;stroke:#000000;stroke-width:1px;stroke-linecap:butt;stroke-linejoin:miter;stroke-opacity:1"
       d="m 1732.663,680.32081 -255.1181,0 0,212.59843 255.1181,0"
       id="path4291"
       inkscape:connector-curvature="0" />
  </g>
</svg>
